﻿sl_id,sl_store,sl_address,sl_address2,sl_city,sl_state,sl_zip,sl_country,sl_latitude,sl_longitude,sl_tags,sl_description,sl_email,sl_url,sl_hours,sl_phone,sl_fax,sl_image,sl_private,sl_neat_title,category,category_slug
146,"My Town","1700 Highway 17 North",,"Mt Pleasant",SC,29464,USA,32.833306,-79.829011,,,info@storelocatorplus.com,storelocatorplus.com,"M-F 10-4","(843) 555-1212",,,,,,
147,"Amalfi's Italian Restaurant","664 E Long Point Road",,"Mount Pleasant",SC,29464,USA,32.8393079,-79.854356,"a,b,c",,,http://www.amalfisofmountpleasant.com/,,"(843) 793-4265 ",,,,,Restaurant,restaurant
149,"Tsunami MP","1909 US 17",#K,"Mount Pleasant",SC,29464,USA,32.8312194,-79.8271261,,,,http://www.tsunamicompany.com,,"(843) 881-7061",,,,,Restaurant,restaurant
150,"Tsunami Gervais Street","700 Gervais Street",,Columbia,SC,29201,USA,33.9983205,-81.0404131,,,,http://www.tsunamicompany.com,,"(803) 312-9911",,,,,Restaurant,restaurant
151,"Tsunami Downtown","215 East Bay Street",,Charleston,SC,29401,USA,32.7806443,-79.9275059,,,,http://www.tsunamicompany.com,,"(843) 965-5281",,,,,Restaurant,restaurant
152,"Tsunami Columbia","1290 Bower Parkway",,Columbia,SC,29212,USA,34.0701432,-81.1525059,,,,http://www.tsunamicompany.com,,"(803) 407-3873",,,,,Restaurant,restaurant
153,"Rio Grande Mexican Restaurant","660 Long Point Rd",,"Mount Pleasant",SC,29464,USA,32.8406633,-79.8594382,,,,http://www.riograndecharleston.net/,,"(843) 388-0462",,,,,Restaurant,restaurant
154,"Brixx Wood Fired Pizza","656 Long Point Rd",,"Mt Pleasant",SC,29464,USA,32.8400135,-79.8550442,,,,http://brixxpizza.com/,,"(843) 971-2120",,,,,Restaurant,restaurant
155,"Dog and Duck","624 Long Point Rd",,"Mt Pleasant",SC,29464,USA,32.8407493,-79.857387,,,,http://dogandduckfamilypubs.com,,"(843) 881-3056",,,,,Restaurant,restaurant
156,"Fuji Sushi Bar & Grill","644 Long Point Rd","644 Long Point Rd","Mt Pleasant",SC,29464,USA,32.8403892,-79.8553915,,,,,,"(843) 881-3056",,,,,Restaurant,restaurant
157,"Hard Rock Cafe","215 Peachtree St NE",,Atlanta,GA,30303,USA,33.759925,-84.387158,,,,http://www.hardrock.com/atlanta,,"(404) 688-7625",,,,,Restaurant,restaurant
158,"Hard Rock Cafe","150 Old Park Ln",,London,,"W1K 1QZ","United Kingdom",51.5039169,-0.1491925,,,,http://www.hardrock.com/cafes/london,,"+44 20 7514 1700",,,,,Restaurant,restaurant
159,"Diane Blackwelder, CFP®","Charleston Financial Advisors, LLC","4 N Atlantic Wharf",Charleston,SC,29401,USA,32.7779587,-79.9263293,,,Diane@CharlestonFinancial.net,http://garrettplanningnetwork.com/advisors/diane-blackwelder/,,"(843) 722-3331",,,,,,
160,"Hotel Berlin Märkischer","Hof am Tacheles","Linienstraße 133",Berlin,,10115,Germany,52.52659,13.38801,,,,,,,,,,,,
162,"Trader Joes","401 Johnnie Dodds Blvd",,"Mount Pleasant",SC,29464,,32.8048056,-79.8870956,,,,,,,,,,,Grocery,grocery
163,"Boone Hall Farms","2521 N Hwy 17",,"Mount Pleasant",SC,29466,,32.8509607,-79.8052929,,,,,,,,,,,Grocery,grocery
